%YAML 1.1
%TAG !u! tag:unity3d.com,2011:
--- !u!21 &2100000
Material:
  serializedVersion: 6
  m_ObjectHideFlags: 0
  m_CorrespondingSourceObject: {fileID: 0}
  m_PrefabInstance: {fileID: 0}
  m_PrefabAsset: {fileID: 0}
  m_Name: acorn-3
  m_Shader: {fileID: 4800000, guid: 683707df6eb00344f819ba423eec6271, type: 3}
  m_ShaderKeywords: 
  m_LightmapFlags: 4
  m_EnableInstancingVariants: 0
  m_DoubleSidedGI: 0
  m_CustomRenderQueue: -1
  stringTagMap: {}
  disabledShaderPasses: []
  m_SavedProperties:
    serializedVersion: 3
    m_TexEnvs:
    - _MainTex:
        m_Texture: {fileID: 2800000, guid: d19cd1636092d45cd9581f0bd094cf9c, type: 3}
        m_Scale: {x: 1, y: 1}
        m_Offset: {x: 0, y: 0}
    m_Floats:
    - _Contrast: 1
    - _Fade: 1
    - _Shear: 1
    - _Size: 15
    - _Skew: 0.5
    - _Speed: 0.5
    m_Colors:
    - _Color1: {r: 0.1, g: 1, b: 1, a: 1}
    - _Color2: {r: 0, g: 0.46, b: 1, a: 0}
